Account type :
1- Candidate
2- Contributor
3- Educator

--------------------------------------------------------
```````````````````````LOGIN````````````````````````````
-------------------------------------------------------

Use Common Login page for all the members
Login Type is differentiated by the Server












--------------------------------------------------------
			Candidate
---------------------------------------------------------
Rules :
1- Use "Candidate" instead of User or Students or Other
2- Use "Challenges"  instead of Test

Folder : Candidate

Modules info :
	1- Dashboard
	2- ChallengesList All
	3- Callenges Registered
